<svg width="154" height="101" viewBox="0 0 154 101" fill="none" xmlns="http://www.w3.org/2000/svg">
<path d="M1 14V6C1 3.23858 3.23858 1 6 1H14" stroke="white" stroke-width="2"/>
<path d="M153 87L153 95C153 97.7614 150.761 100 148 100L140 100" stroke="white" stroke-width="2"/>
<path d="M14 100L6 100C3.23858 100 1 97.7614 1 95L0.999999 87" stroke="white" stroke-width="2"/>
<path d="M140 0.999999L148 1C150.761 1 153 3.23858 153 6L153 14" stroke="white" stroke-width="2"/>
</svg>
